{
  "children": [
    {
      "children": [
        {
          "children": [
            {
              "children": [
                {
                  "data": [
                    {
                      "format": {}, 
                      "url": {}, 
                      "temporalit\u00e9": {}, 
                      "acteurs": {}, 
                      "source": {}, 
                      "api": {}, 
                      "normes": {}, 
                      "nomemclature": {}
                    }
                  ], 
                  "d\u00e9finition": "Distinction apr\u00e8s r\u00e9alisation, louant des qualit\u00e9s \u00e0 l'ouvrage", 
                  "label": "R\u00e9compenses"
                }, 
                {
                  "data": [
                    {
                      "format": {}, 
                      "url": {}, 
                      "temporalit\u00e9": {}, 
                      "acteurs": {}, 
                      "source": {}, 
                      "api": {}, 
                      "normes": {}, 
                      "nomemclature": {}
                    }
                  ], 
                  "d\u00e9finition": "Distinction honorifique, sans comp\u00e9tition", 
                  "label": "Honneurs"
                }, 
                {
                  "data": [
                    {
                      "format": {}, 
                      "url": {}, 
                      "temporalit\u00e9": {}, 
                      "acteurs": {}, 
                      "source": {}, 
                      "api": {}, 
                      "normes": {}, 
                      "nomemclature": {}
                    }
                  ], 
                  "d\u00e9finition": "R\u00e9compense selon une performance dans une comp\u00e9tition", 
                  "label": "Prix"
                }
              ], 
              "d\u00e9finition": "Marques de reconaissance de qualit\u00e9s remarquables, r\u00e9compensant l'ouvrage", 
              "label": "Disctinctions"
            }, 
            {
              "children": [
                {
                  "data": [
                    {
                      "format": {}, 
                      "url": {}, 
                      "temporalit\u00e9": {}, 
                      "acteurs": {}, 
                      "source": {}, 
                      "api": {}, 
                      "normes": {}, 
                      "nomemclature": {}
                    }
                  ], 
                  "d\u00e9finition": "Date de l'\u00e9v\u00e8nement", 
                  "label": "Date"
                }, 
                {
                  "data": [
                    {
                      "format": {}, 
                      "url": {}, 
                      "temporalit\u00e9": {}, 
                      "acteurs": {}, 
                      "source": {}, 
                      "api": {}, 
                      "normes": {}, 
                      "nomemclature": {}
                    }
                  ], 
                  "d\u00e9finition": "Nombre de visiteurs de l'\u00e9v\u00e8nement Sujet", 
                  "label": "Visiteurs"
                }, 
                {
                  "data": [
                    {
                      "format": {}, 
                      "url": {}, 
                      "temporalit\u00e9": {}, 
                      "acteurs": {}, 
                      "source": {}, 
                      "api": {}, 
                      "normes": {}, 
                      "nomemclature": {}
                    }
                  ], 
                  "d\u00e9finition": "R\u00e9currence potentielle de l'\u00e9v\u00e8nement", 
                  "label": "R\u00e9currence"
                }
              ], 
              "d\u00e9finition": "Action \u00e9ph\u00e9m\u00e8re de c\u00e9l\u00e9bration concernant l'ouvrage", 
              "label": "Ev\u00e8nements sujets"
            }, 
            {
              "children": [
                {
                  "data": [
                    {
                      "format": {}, 
                      "url": {}, 
                      "temporalit\u00e9": {}, 
                      "acteurs": {}, 
                      "source": {}, 
                      "api": {}, 
                      "normes": {}, 
                      "nomemclature": {}
                    }
                  ], 
                  "d\u00e9finition": "Recommandations dans des guides et publications touristiques", 
                  "label": "Publications touristiques"
                }, 
                {
                  "data": [
                    {
                      "format": {}, 
                      "url": {}, 
                      "temporalit\u00e9": {}, 
                      "acteurs": {}, 
                      "source": {}, 
                      "api": {}, 
                      "normes": {}, 
                      "nomemclature": {}
                    }
                  ], 
                  "d\u00e9finition": "Citations ou publications dans les journaux g\u00e9n\u00e9raux", 
                  "label": "Journaux g\u00e9n\u00e9raux"
                }, 
                {
                  "data": [
                    {
                      "format": {}, 
                      "url": {}, 
                      "temporalit\u00e9": {}, 
                      "acteurs": {}, 
                      "source": {}, 
                      "api": {}, 
                      "normes": {}, 
                      "nomemclature": {}
                    }
                  ], 
                  "d\u00e9finition": "Citations \u00e0 travers des supports documentaires", 
                  "label": "Films documentaires"
                }, 
                {
                  "data": [
                    {
                      "format": {}, 
                      "url": {}, 
                      "temporalit\u00e9": {}, 
                      "acteurs": {}, 
                      "source": {}, 
                      "api": {}, 
                      "normes": {}, 
                      "nomemclature": {}
                    }
                  ], 
                  "d\u00e9finition": "Citations dans les journaux ou articles \u00e0 caract\u00e8re artistique (papier ou num\u00e9rique)", 
                  "label": "Publications \u00e0 caract\u00e8re artistique"
                }
              ], 
              "d\u00e9finition": "R\u00e9f\u00e9rence \u00e0 l'ouvrage dans une expression experte, sacralis\u00e9e et \u00e9litiste", 
              "label": "Occurrences institu\u00e9es"
            }, 
            {
              "children": [
                {
                  "data": [
                    {
                      "format": {}, 
                      "url": {}, 
                      "temporalit\u00e9": {}, 
                      "acteurs": {}, 
                      "source": {}, 
                      "api": {}, 
                      "normes": {}, 
                      "nomemclature": {}
                    }
                  ], 
                  "d\u00e9finition": "Libre, guid\u00e9e", 
                  "label": "Type"
                }, 
                {
                  "data": [
                    {
                      "format": {}, 
                      "url": {}, 
                      "temporalit\u00e9": {}, 
                      "acteurs": {}, 
                      "source": {}, 
                      "api": {}, 
                      "normes": {}, 
                      "nomemclature": {}
                    }
                  ], 
                  "d\u00e9finition": "Fr\u00e9quence des visites", 
                  "label": "R\u00e9currence"
                }
              ], 
              "d\u00e9finition": "C\u00e9l\u00e9bration de la valeur artistique par la possibilit\u00e9 de visite", 
              "label": "Visite"
            }
          ], 
          "d\u00e9finition": "Reconnaissance publique d'un caract\u00e8re artistique", 
          "label": "C\u00e9l\u00e9bration"
        }, 
        {
          "children": [
            {
              "children": [
                {
                  "data": [
                    {
                      "format": {}, 
                      "url": {}, 
                      "temporalit\u00e9": {}, 
                      "acteurs": {}, 
                      "source": {}, 
                      "api": {}, 
                      "normes": {}, 
                      "nomemclature": {}
                    }
                  ], 
                  "d\u00e9finition": "Citation dans un r\u00e9seau social num\u00e9rique", 
                  "label": "R\u00e9seaux sociaux"
                }, 
                {
                  "data": [
                    {
                      "format": {}, 
                      "url": {}, 
                      "temporalit\u00e9": {}, 
                      "acteurs": {}, 
                      "source": {}, 
                      "api": {}, 
                      "normes": {}, 
                      "nomemclature": {}
                    }
                  ], 
                  "d\u00e9finition": "Occurence d'images et vid\u00e9os faisant r\u00e9f\u00e9rence au monument", 
                  "label": "Base de donn\u00e9es images et vid\u00e9os"
                }, 
                {
                  "data": [
                    {
                      "format": {}, 
                      "url": {}, 
                      "temporalit\u00e9": {}, 
                      "acteurs": {}, 
                      "source": {}, 
                      "api": {}, 
                      "normes": {}, 
                      "nomemclature": {}
                    }
                  ], 
                  "d\u00e9finition": "Occurence de recherches internet faisant r\u00e9f\u00e9rence au monument", 
                  "label": "Moteur de recherche"
                }, 
                {
                  "data": [
                    {
                      "format": {}, 
                      "url": {}, 
                      "temporalit\u00e9": {}, 
                      "acteurs": {}, 
                      "source": {}, 
                      "api": {}, 
                      "normes": {}, 
                      "nomemclature": {}
                    }
                  ], 
                  "d\u00e9finition": "Citations ou publications dans des blogs (g\u00e9n\u00e9raliste, artistique...)", 
                  "label": "Blogs et publications amateurs"
                }, 
                {
                  "data": [
                    {
                      "format": {}, 
                      "url": {}, 
                      "temporalit\u00e9": {}, 
                      "acteurs": {}, 
                      "source": {}, 
                      "api": {}, 
                      "normes": {}, 
                      "nomemclature": {}
                    }
                  ], 
                  "d\u00e9finition": "Occurrences de recherches physiques sur l'objet \u00e9tudi\u00e9", 
                  "label": "Recherches physiques"
                }
              ], 
              "d\u00e9finition": "R\u00e9f\u00e9rence \u00e0 l'ouvrage dans une expression amateure, profane et populaire", 
              "label": "Occurrences participatives"
            }, 
            {
              "children": [
                {
                  "data": [
                    {
                      "format": {}, 
                      "url": {}, 
                      "temporalit\u00e9": {}, 
                      "acteurs": {}, 
                      "source": {}, 
                      "api": {}, 
                      "normes": {}, 
                      "nomemclature": {}
                    }
                  ], 
                  "d\u00e9finition": "Origine (locale, nationnale, internationnale) des visiteurs \u00e9tablissant un rayonnement", 
                  "label": "Provenance"
                }, 
                {
                  "data": [
                    {
                      "format": {}, 
                      "url": {}, 
                      "temporalit\u00e9": {}, 
                      "acteurs": {}, 
                      "source": {}, 
                      "api": {}, 
                      "normes": {}, 
                      "nomemclature": {}
                    }
                  ], 
                  "d\u00e9finition": "Nombre de visiteurs de l'ouvrage", 
                  "label": "Affluence"
                }
              ], 
              "d\u00e9finition": "Personnes de passage venues contempler l'ouvrage ou son contenu", 
              "label": "Visiteurs"
            }, 
            {
              "children": [
                {
                  "data": [
                    {
                      "format": {}, 
                      "url": {}, 
                      "temporalit\u00e9": {}, 
                      "acteurs": {}, 
                      "source": {}, 
                      "api": {}, 
                      "normes": {}, 
                      "nomemclature": {}
                    }
                  ], 
                  "d\u00e9finition": "vide", 
                  "label": "Date"
                }, 
                {
                  "data": [
                    {
                      "format": {}, 
                      "url": {}, 
                      "temporalit\u00e9": {}, 
                      "acteurs": {}, 
                      "source": {}, 
                      "api": {}, 
                      "normes": {}, 
                      "nomemclature": {}
                    }
                  ], 
                  "d\u00e9finition": "Fr\u00e9quence", 
                  "label": "R\u00e9currence"
                }, 
                {
                  "data": [
                    {
                      "format": {}, 
                      "url": {}, 
                      "temporalit\u00e9": {}, 
                      "acteurs": {}, 
                      "source": {}, 
                      "api": {}, 
                      "normes": {}, 
                      "nomemclature": {}
                    }
                  ], 
                  "d\u00e9finition": "Nombre de visiteurs de l'\u00e9v\u00e8nement H\u00f4te", 
                  "label": "Visiteurs"
                }
              ], 
              "d\u00e9finition": "Ev\u00e8nement prenant place dans l'ouvrage sans l'\u00e9voquer", 
              "label": "Evenements H\u00f4te"
            }
          ], 
          "d\u00e9finition": "Manifestation d'int\u00e9r\u00eats individuels pour un caract\u00e8re artistique", 
          "label": "Adh\u00e9sion"
        }
      ], 
      "d\u00e9finition": "Valeur de contemporan\u00e9it\u00e9 satisfaisant une cons\u00e9cration artistique", 
      "label": "Art"
    },
    {
      "children": [
        {
          "children": [
            {
              "children": [
                {
                  "data": [
                    {
                      "format": {}, 
                      "url": {}, 
                      "temporalit\u00e9": {}, 
                      "acteurs": {}, 
                      "source": {}, 
                      "api": {}, 
                      "normes": {}, 
                      "nomemclature": {}
                    }
                  ], 
                  "d\u00e9finition": "Localisation sur l'ouvrage", 
                  "label": "Localisation"
                }, 
                {
                  "data": [
                    {
                      "format": {}, 
                      "url": {}, 
                      "temporalit\u00e9": {}, 
                      "acteurs": {}, 
                      "source": {}, 
                      "api": {}, 
                      "normes": {}, 
                      "nomemclature": {}
                    }
                  ], 
                  "d\u00e9finition": "Type de l'intervention selon d\u00e9claration de travaux (extension, sur\u00e9l\u00e9vation, remplacement, etc)", 
                  "label": "Type"
                }, 
                {
                  "data": [
                    {
                      "format": {}, 
                      "url": {}, 
                      "temporalit\u00e9": {}, 
                      "acteurs": {}, 
                      "source": {}, 
                      "api": {}, 
                      "normes": {}, 
                      "nomemclature": {}
                    }
                  ], 
                  "d\u00e9finition": "Date de l'intervention", 
                  "label": "Date"
                }, 
                {
                  "data": [
                    {
                      "format": {}, 
                      "url": {}, 
                      "temporalit\u00e9": {}, 
                      "acteurs": {}, 
                      "source": {}, 
                      "api": {}, 
                      "normes": {}, 
                      "nomemclature": {}
                    }
                  ], 
                  "d\u00e9finition": "A relier avec les info norm\u00e9es des d\u00e9clarations de travaux", 
                  "label": "Ampleur"
                }
              ], 
              "d\u00e9finition": "L'acte d'une modification architecturale \u00e0 un ouvrage existant ", 
              "label": "Travaux"
            }, 
            {
              "children": [
                {
                  "data": [
                    {
                      "format": {}, 
                      "url": {}, 
                      "temporalit\u00e9": {}, 
                      "acteurs": {}, 
                      "source": {}, 
                      "api": {}, 
                      "normes": {}, 
                      "nomemclature": {}
                    }
                  ], 
                  "d\u00e9finition": "Titre de propri\u00e9t\u00e9 industrielle", 
                  "label": "Brevet"
                }, 
                {
                  "data": [
                    {
                      "format": {}, 
                      "url": {}, 
                      "temporalit\u00e9": {}, 
                      "acteurs": {}, 
                      "source": {}, 
                      "api": {}, 
                      "normes": {}, 
                      "nomemclature": {}
                    }
                  ], 
                  "d\u00e9finition": "Mise en concurrence en vue de l'attribution d'un contrat", 
                  "label": "Concours"
                }
              ], 
              "d\u00e9finition": "Marques d'innovation associ\u00e9es au monument", 
              "label": "Marque d'innovation"
            }, 
            {
              "children": [
                {
                  "data": [
                    {
                      "format": {}, 
                      "url": {}, 
                      "temporalit\u00e9": {}, 
                      "acteurs": {}, 
                      "source": {}, 
                      "api": {}, 
                      "normes": {}, 
                      "nomemclature": {}
                    }
                  ], 
                  "d\u00e9finition": "Nom du courant", 
                  "label": "D\u00e9nomination"
                }, 
                {
                  "data": [
                    {
                      "format": {}, 
                      "url": {}, 
                      "temporalit\u00e9": {}, 
                      "acteurs": {}, 
                      "source": {}, 
                      "api": {}, 
                      "normes": {}, 
                      "nomemclature": {}
                    }
                  ], 
                  "d\u00e9finition": "P\u00e9riode du courant", 
                  "label": "\u00c9poque"
                }
              ], 
              "d\u00e9finition": "Usage de caract\u00e8res communs amenant un rassemblement (Style architectural, mouvement artistique, mat\u00e9riaux)", 
              "label": "Courant"
            }
          ], 
          "d\u00e9finition": "Ce qui a trait \u00e0 l'actualisation de la forme, qui vise \u00e0 cr\u00e9er du nouveau (diff\u00e9rent d'avant, r\u00e9cent et diff\u00e9rent)", 
          "label": "Innovation"
        }, 
        {
          "children": [
            {
              "children": [
                {
                  "data": [
                    {
                      "format": {}, 
                      "url": {}, 
                      "temporalit\u00e9": {}, 
                      "acteurs": {}, 
                      "source": {}, 
                      "api": {}, 
                      "normes": {}, 
                      "nomemclature": {}
                    }
                  ], 
                  "d\u00e9finition": "vide", 
                  "label": "Niveaux"
                }, 
                {
                  "data": [
                    {
                      "format": {}, 
                      "url": {}, 
                      "temporalit\u00e9": {}, 
                      "acteurs": {}, 
                      "source": {}, 
                      "api": {}, 
                      "normes": {}, 
                      "nomemclature": {}
                    }
                  ], 
                  "d\u00e9finition": "vide", 
                  "label": "Hauteur"
                }, 
                {
                  "data": [
                    {
                      "format": {}, 
                      "url": {}, 
                      "temporalit\u00e9": {}, 
                      "acteurs": {}, 
                      "source": {}, 
                      "api": {}, 
                      "normes": {}, 
                      "nomemclature": {}
                    }
                  ], 
                  "d\u00e9finition": "vide", 
                  "label": "Surface de plancher"
                }
              ], 
              "d\u00e9finition": "Dimensions spatiales de l'ouvrage", 
              "label": "Dimension"
            }, 
            {
              "children": [
                {
                  "data": [
                    {
                      "format": {}, 
                      "url": {}, 
                      "temporalit\u00e9": {}, 
                      "acteurs": {}, 
                      "source": {}, 
                      "api": {}, 
                      "normes": {}, 
                      "nomemclature": {}
                    }
                  ], 
                  "d\u00e9finition": "Date d'inauguration de l'ouvrage qui marque le d\u00e9but de l'usage", 
                  "label": "Date d'inauguration"
                }
              ], 
              "d\u00e9finition": "Acte d\u00e9but d'utilisation de l'ouvrage", 
              "label": "Inauguration"
            }, 
            {
              "children": [
                {
                  "data": [
                    {
                      "format": {}, 
                      "url": {}, 
                      "temporalit\u00e9": {}, 
                      "acteurs": {}, 
                      "source": {}, 
                      "api": {}, 
                      "normes": {}, 
                      "nomemclature": {}
                    }
                  ], 
                  "d\u00e9finition": "Celui dont c'est le patrimoine", 
                  "label": "Propri\u00e9taire"
                }
              ], 
              "d\u00e9finition": "Usage de caract\u00e8res communs amenant un rassemblement (Style architectural, mouvement artistique, mat\u00e9riaux)", 
              "label": "Propri\u00e9t\u00e9"
            }, 
            {
              "children": [
                {
                  "data": [
                    {
                      "format": {}, 
                      "url": {}, 
                      "temporalit\u00e9": {}, 
                      "acteurs": {}, 
                      "source": {}, 
                      "api": {}, 
                      "normes": {}, 
                      "nomemclature": {}
                    }
                  ], 
                  "d\u00e9finition": "vide", 
                  "label": "Thermique"
                }, 
                {
                  "data": [
                    {
                      "format": {}, 
                      "url": {}, 
                      "temporalit\u00e9": {}, 
                      "acteurs": {}, 
                      "source": {}, 
                      "api": {}, 
                      "normes": {}, 
                      "nomemclature": {}
                    }
                  ], 
                  "d\u00e9finition": "vide", 
                  "label": "Accoustique"
                }, 
                {
                  "data": [
                    {
                      "format": {}, 
                      "url": {}, 
                      "temporalit\u00e9": {}, 
                      "acteurs": {}, 
                      "source": {}, 
                      "api": {}, 
                      "normes": {}, 
                      "nomemclature": {}
                    }
                  ], 
                  "d\u00e9finition": "Mode de production et de consomation dans l'ouvrage", 
                  "label": "\u00c9nergie"
                }
              ], 
              "d\u00e9finition": "Comparaison de donn\u00e9es th\u00e9orique avec des mesures r\u00e9elles", 
              "label": "Efficacit\u00e9"
            }, 
            {
              "children": [
                {
                  "data": [
                    {
                      "format": {}, 
                      "url": {}, 
                      "temporalit\u00e9": {}, 
                      "acteurs": {}, 
                      "source": {}, 
                      "api": {}, 
                      "normes": {}, 
                      "nomemclature": {}
                    }
                  ], 
                  "d\u00e9finition": "Date de la reception du b\u00e2timent", 
                  "label": "Date de r\u00e9ception"
                }, 
                {
                  "data": [
                    {
                      "format": {}, 
                      "url": {}, 
                      "temporalit\u00e9": {}, 
                      "acteurs": {}, 
                      "source": {}, 
                      "api": {}, 
                      "normes": {}, 
                      "nomemclature": {}
                    }
                  ], 
                  "d\u00e9finition": "Co\u00fbt de construction", 
                  "label": "Budget"
                }, 
                {
                  "data": [
                    {
                      "format": {}, 
                      "url": {}, 
                      "temporalit\u00e9": {}, 
                      "acteurs": {}, 
                      "source": {}, 
                      "api": {}, 
                      "normes": {}, 
                      "nomemclature": {}
                    }
                  ], 
                  "d\u00e9finition": "Etat d'achevement de l'ouvrage", 
                  "label": "Etat d'achevement"
                }, 
                {
                  "data": [
                    {
                      "format": {}, 
                      "url": {}, 
                      "temporalit\u00e9": {}, 
                      "acteurs": {}, 
                      "source": {}, 
                      "api": {}, 
                      "normes": {}, 
                      "nomemclature": {}
                    }
                  ], 
                  "d\u00e9finition": "Syst\u00e8me constructif mis en oeuvre", 
                  "label": "Syst\u00e8me constructif"
                }, 
                {
                  "data": [
                    {
                      "format": {}, 
                      "url": {}, 
                      "temporalit\u00e9": {}, 
                      "acteurs": {}, 
                      "source": {}, 
                      "api": {}, 
                      "normes": {}, 
                      "nomemclature": {}
                    }
                  ], 
                  "d\u00e9finition": "Mat\u00e9riaux mis en oeuvre", 
                  "label": "Mat\u00e9riaux"
                }
              ], 
              "d\u00e9finition": "L'acte de construction d'un ouvrage", 
              "label": "Construction"
            }
          ], 
          "d\u00e9finition": "Estime la forme finie, achev\u00e9e. Qui vient de naitre", 
          "label": "Int\u00e9grit\u00e9"
        }
      ], 
      "d\u00e9finition": "Satisfaction du caract\u00e8re achev\u00e9, de la parfaite finition, de l\u2019int\u00e9grit\u00e9 de la forme neuve", 
      "label": "Nouveaut\u00e9"
    }, 
    {
      "children": [
        {
          "children": [
            {
              "children": [
                {
                  "data": [
                    {
                      "format": {}, 
                      "url": {}, 
                      "temporalit\u00e9": {}, 
                      "acteurs": {}, 
                      "source": {}, 
                      "api": {}, 
                      "normes": {}, 
                      "nomemclature": {}
                    }
                  ], 
                  "d\u00e9finition": "Liste des usages initiaux par niveau", 
                  "label": "Usage par niveau"
                }, 
                {
                  "data": [
                    {
                      "format": {}, 
                      "url": {}, 
                      "temporalit\u00e9": {}, 
                      "acteurs": {}, 
                      "source": {}, 
                      "api": {}, 
                      "normes": {}, 
                      "nomemclature": {}
                    }
                  ], 
                  "d\u00e9finition": "Nombre total d'usages initiaux", 
                  "label": "Nombre d'usages"
                }, 
                {
                  "data": [
                    {
                      "format": {}, 
                      "url": {}, 
                      "temporalit\u00e9": {}, 
                      "acteurs": {}, 
                      "source": {}, 
                      "api": {}, 
                      "normes": {}, 
                      "nomemclature": {}
                    }
                  ], 
                  "d\u00e9finition": "Nature de l'usage initial du b\u00e2timent", 
                  "label": "Type d'usage global"
                }, 
                {
                  "data": [
                    {
                      "format": {}, 
                      "url": {}, 
                      "temporalit\u00e9": {}, 
                      "acteurs": {}, 
                      "source": {}, 
                      "api": {}, 
                      "normes": {}, 
                      "nomemclature": {}
                    }
                  ], 
                  "d\u00e9finition": "A relier avec les info norm\u00e9es des d\u00e9clarations de travaux", 
                  "label": "Ampleur"
                }
              ], 
              "d\u00e9finition": "Destination initiale de l'\u00e9difice ", 
              "label": "Programmes initiaux"
            }, 
            {
              "children": [
                {
                  "data": [
                    {
                      "format": {}, 
                      "url": {}, 
                      "temporalit\u00e9": {}, 
                      "acteurs": {}, 
                      "source": {}, 
                      "api": {}, 
                      "normes": {}, 
                      "nomemclature": {}
                    }
                  ], 
                  "d\u00e9finition": "Nature de l'usage actuel", 
                  "label": "Types d'usages "
                }, 
                {
                  "data": [
                    {
                      "format": {}, 
                      "url": {}, 
                      "temporalit\u00e9": {}, 
                      "acteurs": {}, 
                      "source": {}, 
                      "api": {}, 
                      "normes": {}, 
                      "nomemclature": {}
                    }
                  ], 
                  "d\u00e9finition": "Date de changement d'usage", 
                  "label": "Date de changement "
                }, 
                {
                  "data": [
                    {
                      "format": {}, 
                      "url": {}, 
                      "temporalit\u00e9": {}, 
                      "acteurs": {}, 
                      "source": {}, 
                      "api": {}, 
                      "normes": {}, 
                      "nomemclature": {}
                    }
                  ], 
                  "d\u00e9finition": "Liste des nouveaux usages par niveaux", 
                  "label": "Usages nouveaux par niveau"
                }, 
                {
                  "data": [
                    {
                      "format": {}, 
                      "url": {}, 
                      "temporalit\u00e9": {}, 
                      "acteurs": {}, 
                      "source": {}, 
                      "api": {}, 
                      "normes": {}, 
                      "nomemclature": {}
                    }
                  ], 
                  "d\u00e9finition": "Nombre total d'usages actuels", 
                  "label": "Nombre d'usages"
                }
              ], 
              "d\u00e9finition": "Etat des usages en cours dans l'objet", 
              "label": "Programmes actuels"
            }, 
            {
              "children": [
                {
                  "data": [
                    {
                      "format": {}, 
                      "url": {}, 
                      "temporalit\u00e9": {}, 
                      "acteurs": {}, 
                      "source": {}, 
                      "api": {}, 
                      "normes": {}, 
                      "nomemclature": {}
                    }
                  ], 
                  "d\u00e9finition": "Indication quantitative de son utilisation par niveau", 
                  "label": "Taux d'utilisation"
                }, 
                {
                  "data": [
                    {
                      "format": {}, 
                      "url": {}, 
                      "temporalit\u00e9": {}, 
                      "acteurs": {}, 
                      "source": {}, 
                      "api": {}, 
                      "normes": {}, 
                      "nomemclature": {}
                    }
                  ], 
                  "d\u00e9finition": "Jours et heures d'ouverture", 
                  "label": "Horaires"
                }, 
                {
                  "data": [
                    {
                      "format": {}, 
                      "url": {}, 
                      "temporalit\u00e9": {}, 
                      "acteurs": {}, 
                      "source": {}, 
                      "api": {}, 
                      "normes": {}, 
                      "nomemclature": {}
                    }
                  ], 
                  "d\u00e9finition": "Budget de maintenance", 
                  "label": "Co\u00fbt "
                }
              ], 
              "d\u00e9finition": "Capacit\u00e9 d'exercice, d'utilisation et d'acc\u00e8s au sein d'un ouvrage", 
              "label": "Fonctionnement"
            }, 
            {
              "children": [
                {
                  "data": [
                    {
                      "format": {}, 
                      "url": {}, 
                      "temporalit\u00e9": {}, 
                      "acteurs": {}, 
                      "source": {}, 
                      "api": {}, 
                      "normes": {}, 
                      "nomemclature": {}
                    }
                  ], 
                  "d\u00e9finition": "Nombre de places de stationnement", 
                  "label": "Parking"
                }, 
                {
                  "data": [
                    {
                      "format": {}, 
                      "url": {}, 
                      "temporalit\u00e9": {}, 
                      "acteurs": {}, 
                      "source": {}, 
                      "api": {}, 
                      "normes": {}, 
                      "nomemclature": {}
                    }
                  ], 
                  "d\u00e9finition": "Voies de circulation touchant l'\u00e9difice", 
                  "label": "Voierie "
                }
              ], 
              "d\u00e9finition": "Disposition et am\u00e9nagement des modes de liaison entre l'objet et son environnement urbain", 
              "label": "Accessibilit\u00e9"
            }, 
            {
              "children": [
                {
                  "data": [
                    {
                      "format": {}, 
                      "url": {}, 
                      "temporalit\u00e9": {}, 
                      "acteurs": {}, 
                      "source": {}, 
                      "api": {}, 
                      "normes": {}, 
                      "nomemclature": {}
                    }
                  ], 
                  "d\u00e9finition": "Nombre de personnes pouvant \u00eatre re\u00e7ues ensemble dans l'\u00e9difice", 
                  "label": "Capacit\u00e9"
                }, 
                {
                  "data": [
                    {
                      "format": {}, 
                      "url": {}, 
                      "temporalit\u00e9": {}, 
                      "acteurs": {}, 
                      "source": {}, 
                      "api": {}, 
                      "normes": {}, 
                      "nomemclature": {}
                    }
                  ], 
                  "d\u00e9finition": "Nombre de clients et usagers", 
                  "label": "Usagers"
                }, 
                {
                  "data": [
                    {
                      "format": {}, 
                      "url": {}, 
                      "temporalit\u00e9": {}, 
                      "acteurs": {}, 
                      "source": {}, 
                      "api": {}, 
                      "normes": {}, 
                      "nomemclature": {}
                    }
                  ], 
                  "d\u00e9finition": "Nombre de personnes travaillant ou r\u00e9sidant dans l'\u00e9difice", 
                  "label": "Personnel"
                }, 
                {
                  "data": [
                    {
                      "format": {}, 
                      "url": {}, 
                      "temporalit\u00e9": {}, 
                      "acteurs": {}, 
                      "source": {}, 
                      "api": {}, 
                      "normes": {}, 
                      "nomemclature": {}
                    }
                  ], 
                  "d\u00e9finition": "Nombre de personnes qui ont indiqu\u00e9 leur pr\u00e9sence sur Facebook ", 
                  "label": "Pr\u00e9sence Facebook"
                }
              ], 
              "d\u00e9finition": "Pr\u00e9sence d'individus au sein m\u00eame de l'objet", 
              "label": "Affluence"
            }
          ], 
          "d\u00e9finition": "Appropriation volontaire", 
          "label": "Reconversion"
        }, 
        {
          "children": [
            {
              "children": [
                {
                  "data": [
                    {
                      "format": {}, 
                      "url": {}, 
                      "temporalit\u00e9": {}, 
                      "acteurs": {}, 
                      "source": {}, 
                      "api": {}, 
                      "normes": {}, 
                      "nomemclature": {}
                    }
                  ], 
                  "d\u00e9finition": "Nombre d\u2019\u00e9v\u00e9nements, par an, qui ont eu lieu dans ce b\u00e2timent", 
                  "label": "Nombre Ev\u00e9nements"
                }, 
                {
                  "data": [
                    {
                      "format": {}, 
                      "url": {}, 
                      "temporalit\u00e9": {}, 
                      "acteurs": {}, 
                      "source": {}, 
                      "api": {}, 
                      "normes": {}, 
                      "nomemclature": {}
                    }
                  ], 
                  "d\u00e9finition": "D\u00e9signation des \u00e9v\u00e9nements qui ont eu lieu dans le b\u00e2timent", 
                  "label": "D\u00e9tails Ev\u00e8nements "
                }
              ], 
              "d\u00e9finition": "Manifestation \u00e9ph\u00e9m\u00e8re th\u00e9matique au sein du b\u00e2timent.", 
              "label": "Ev\u00e9nement"
            }, 
            {
              "children": [
                {
                  "data": [
                    {
                      "format": {}, 
                      "url": {}, 
                      "temporalit\u00e9": {}, 
                      "acteurs": {}, 
                      "source": {}, 
                      "api": {}, 
                      "normes": {}, 
                      "nomemclature": {}
                    }
                  ], 
                  "d\u00e9finition": "Pourcentage d'espace non assign\u00e9 \u00e0 une utilisation officielle", 
                  "label": "Taux d'abandon"
                }, 
                {
                  "data": [
                    {
                      "format": {}, 
                      "url": {}, 
                      "temporalit\u00e9": {}, 
                      "acteurs": {}, 
                      "source": {}, 
                      "api": {}, 
                      "normes": {}, 
                      "nomemclature": {}
                    }
                  ], 
                  "d\u00e9finition": "Date \u00e0 laquelle une perte d'espace utilis\u00e9 a eu lieu", 
                  "label": "Date d'abandon "
                }
              ], 
              "d\u00e9finition": "Perte d'usage. Vacance de l'\u00e9difice", 
              "label": "Abandon"
            }, 
            {
              "children": [
                {
                  "data": [
                    {
                      "format": {}, 
                      "url": {}, 
                      "temporalit\u00e9": {}, 
                      "acteurs": {}, 
                      "source": {}, 
                      "api": {}, 
                      "normes": {}, 
                      "nomemclature": {}
                    }
                  ], 
                  "d\u00e9finition": "Type d'occupation par niveau", 
                  "label": "Type d'occupation"
                }, 
                {
                  "data": [
                    {
                      "format": {}, 
                      "url": {}, 
                      "temporalit\u00e9": {}, 
                      "acteurs": {}, 
                      "source": {}, 
                      "api": {}, 
                      "normes": {}, 
                      "nomemclature": {}
                    }
                  ], 
                  "d\u00e9finition": "Taux de surface occup\u00e9e", 
                  "label": "Taux d'occupation"
                }, 
                {
                  "data": [
                    {
                      "format": {}, 
                      "url": {}, 
                      "temporalit\u00e9": {}, 
                      "acteurs": {}, 
                      "source": {}, 
                      "api": {}, 
                      "normes": {}, 
                      "nomemclature": {}
                    }
                  ], 
                  "d\u00e9finition": "Temporalit\u00e9 de l'occupation de jour", 
                  "label": "Temps d'occupation la journ\u00e9e "
                }, 
                {
                  "data": [
                    {
                      "format": {}, 
                      "url": {}, 
                      "temporalit\u00e9": {}, 
                      "acteurs": {}, 
                      "source": {}, 
                      "api": {}, 
                      "normes": {}, 
                      "nomemclature": {}
                    }
                  ], 
                  "d\u00e9finition": "Temporalit\u00e9 de l'occupation de nuit", 
                  "label": "Temps d'occupation la nuit "
                }
              ], 
              "d\u00e9finition": "Pr\u00e9sence non d\u00e9sir\u00e9e et volontaire dans l'objet", 
              "label": "Occupation non d\u00e9sir\u00e9e"
            }
          ], 
          "d\u00e9finition": "Appropriation subie", 
          "label": "Mutation"
        }
      ], 
      "d\u00e9finition": "Satisfaction de la forme \u00e0 son caract\u00e8re utilitaire.", 
      "label": "Usage"
    }, 
    {
      "children": [
        {
          "children": [
            {
              "children": [
                {
                  "data": [
                    {
                      "format": {}, 
                      "url": {}, 
                      "temporalit\u00e9": {}, 
                      "acteurs": {}, 
                      "source": {}, 
                      "api": {}, 
                      "normes": {}, 
                      "nomemclature": {}
                    }
                  ], 
                  "d\u00e9finition": "Nom du Label, classement, inventaire", 
                  "label": "Nom"
                }, 
                {
                  "data": [
                    {
                      "format": {}, 
                      "url": {}, 
                      "temporalit\u00e9": {}, 
                      "acteurs": {}, 
                      "source": {}, 
                      "api": {}, 
                      "normes": {}, 
                      "nomemclature": {}
                    }
                  ], 
                  "d\u00e9finition": "International, National, Local, autre", 
                  "label": "Type"
                }, 
                {
                  "data": [
                    {
                      "format": {}, 
                      "url": {}, 
                      "temporalit\u00e9": {}, 
                      "acteurs": {}, 
                      "source": {}, 
                      "api": {}, 
                      "normes": {}, 
                      "nomemclature": {}
                    }
                  ], 
                  "d\u00e9finition": "vide", 
                  "label": "Date de demande"
                }, 
                {
                  "data": [
                    {
                      "format": {}, 
                      "url": {}, 
                      "temporalit\u00e9": {}, 
                      "acteurs": {}, 
                      "source": {}, 
                      "api": {}, 
                      "normes": {}, 
                      "nomemclature": {}
                    }
                  ], 
                  "d\u00e9finition": "vide", 
                  "label": "Auteur de la demande"
                }, 
                {
                  "data": [
                    {
                      "format": {}, 
                      "url": {}, 
                      "temporalit\u00e9": {}, 
                      "acteurs": {}, 
                      "source": {}, 
                      "api": {}, 
                      "normes": {}, 
                      "nomemclature": {}
                    }
                  ], 
                  "d\u00e9finition": "vide", 
                  "label": "Date d'acceptation"
                }, 
                {
                  "data": [
                    {
                      "format": {}, 
                      "url": {}, 
                      "temporalit\u00e9": {}, 
                      "acteurs": {}, 
                      "source": {}, 
                      "api": {}, 
                      "normes": {}, 
                      "nomemclature": {}
                    }
                  ], 
                  "d\u00e9finition": "En cours de demande, accept\u00e9 ", 
                  "label": "Statut"
                }, 
                {
                  "data": [
                    {
                      "format": {}, 
                      "url": {}, 
                      "temporalit\u00e9": {}, 
                      "acteurs": {}, 
                      "source": {}, 
                      "api": {}, 
                      "normes": {}, 
                      "nomemclature": {}
                    }
                  ], 
                  "d\u00e9finition": "Zone concern\u00e9e par l'inscription", 
                  "label": "Zone de d\u00e9finition"
                }
              ], 
              "d\u00e9finition": "Renseigne d'une reconnaissance officielle en discussion et/ou act\u00e9e", 
              "label": "Inscription"
            }, 
            {
              "children": [
                {
                  "data": [
                    {
                      "format": {}, 
                      "url": {}, 
                      "temporalit\u00e9": {}, 
                      "acteurs": {}, 
                      "source": {}, 
                      "api": {}, 
                      "normes": {}, 
                      "nomemclature": {}
                    }
                  ], 
                  "d\u00e9finition": "D\u00e9nomination du courant historique", 
                  "label": "D\u00e9nomination"
                }, 
                {
                  "data": [
                    {
                      "format": {}, 
                      "url": {}, 
                      "temporalit\u00e9": {}, 
                      "acteurs": {}, 
                      "source": {}, 
                      "api": {}, 
                      "normes": {}, 
                      "nomemclature": {}
                    }
                  ], 
                  "d\u00e9finition": "Concepteur du monument", 
                  "label": "Auteur"
                }, 
                {
                  "data": [
                    {
                      "format": {}, 
                      "url": {}, 
                      "temporalit\u00e9": {}, 
                      "acteurs": {}, 
                      "source": {}, 
                      "api": {}, 
                      "normes": {}, 
                      "nomemclature": {}
                    }
                  ], 
                  "d\u00e9finition": "Epoque du courant historique", 
                  "label": "\u00c9poque"
                }, 
                {
                  "data": [
                    {
                      "format": {}, 
                      "url": {}, 
                      "temporalit\u00e9": {}, 
                      "acteurs": {}, 
                      "source": {}, 
                      "api": {}, 
                      "normes": {}, 
                      "nomemclature": {}
                    }
                  ], 
                  "d\u00e9finition": "D\u00e9finition du style par l'appartenance \u00e0 une culture", 
                  "label": "Culture"
                }
              ], 
              "d\u00e9finition": "Appartenance \u00e9tablie \u00e0 un courant historique identifi\u00e9", 
              "label": "Style"
            }
          ], 
          "d\u00e9finition": "Renseigne d'une reconnaissance \u00e9tablie", 
          "label": "Reconnaissance"
        }, 
        {
          "children": [
            {
              "children": [
                {
                  "data": [
                    {
                      "format": {}, 
                      "url": {}, 
                      "temporalit\u00e9": {}, 
                      "acteurs": {}, 
                      "source": {}, 
                      "api": {}, 
                      "normes": {}, 
                      "nomemclature": {}
                    }
                  ], 
                  "d\u00e9finition": "Publications scientifiques sur l'objet d'\u00e9tude", 
                  "label": "Publications scientifiques"
                }, 
                {
                  "data": [
                    {
                      "format": {}, 
                      "url": {}, 
                      "temporalit\u00e9": {}, 
                      "acteurs": {}, 
                      "source": {}, 
                      "api": {}, 
                      "normes": {}, 
                      "nomemclature": {}
                    }
                  ], 
                  "d\u00e9finition": "Rencontres scientifiques o\u00f9 l'ouvrage est au programme", 
                  "label": "Colloques"
                }, 
                {
                  "data": [
                    {
                      "format": {}, 
                      "url": {}, 
                      "temporalit\u00e9": {}, 
                      "acteurs": {}, 
                      "source": {}, 
                      "api": {}, 
                      "normes": {}, 
                      "nomemclature": {}
                    }
                  ], 
                  "d\u00e9finition": "Etudes sur site", 
                  "label": "Arch\u00e9ologie"
                }
              ], 
              "d\u00e9finition": "Int\u00e9r\u00eat sous forme d'\u00e9tudes scientifiques (Interest in the form of scientific study)", 
              "label": "Recherches"
            }, 
            {
              "children": [
                {
                  "data": [
                    {
                      "format": {}, 
                      "url": {}, 
                      "temporalit\u00e9": {}, 
                      "acteurs": {}, 
                      "source": {}, 
                      "api": {}, 
                      "normes": {}, 
                      "nomemclature": {}
                    }
                  ], 
                  "d\u00e9finition": "Pr\u00e9servation par la cr\u00e9ation d'un autre objet", 
                  "label": "Reconstruction"
                }, 
                {
                  "data": [
                    {
                      "format": {}, 
                      "url": {}, 
                      "temporalit\u00e9": {}, 
                      "acteurs": {}, 
                      "source": {}, 
                      "api": {}, 
                      "normes": {}, 
                      "nomemclature": {}
                    }
                  ], 
                  "d\u00e9finition": "Acte de retour \u00e0 un \u00e9tat pr\u00e9c\u00e9dent", 
                  "label": "Restauration"
                }, 
                {
                  "data": [
                    {
                      "format": {}, 
                      "url": {}, 
                      "temporalit\u00e9": {}, 
                      "acteurs": {}, 
                      "source": {}, 
                      "api": {}, 
                      "normes": {}, 
                      "nomemclature": {}
                    }
                  ], 
                  "d\u00e9finition": "Acte de pr\u00e9server l'ouvrage tel qu'il est lors de l'lintervention", 
                  "label": "Conservation"
                }, 
                {
                  "data": [
                    {
                      "format": {}, 
                      "url": {}, 
                      "temporalit\u00e9": {}, 
                      "acteurs": {}, 
                      "source": {}, 
                      "api": {}, 
                      "normes": {}, 
                      "nomemclature": {}
                    }
                  ], 
                  "d\u00e9finition": "Forme de conservation ext\u00e9rieure", 
                  "label": "Archivage"
                }
              ], 
              "d\u00e9finition": "Op\u00e9ration de pr\u00e9servation d\u00e9j\u00e0 conduites ou programm\u00e9es", 
              "label": "Pr\u00e9servation"
            }
          ], 
          "d\u00e9finition": "Qui t\u00e9moigne ou certifie d'une valeur historique", 
          "label": "T\u00e9moignage"
        }
      ], 
      "d\u00e9finition": "Valeur de rem\u00e9moration reconnue/\u00e9tablie \u00e0 un instant donn\u00e9, par l'institution, par un regard scientifique.", 
      "label": "Histoire"
    }, 
    {
      "children": [
        {
          "children": [
            {
              "children": [
                {
                  "data": [
                    {
                      "format": {}, 
                      "url": {}, 
                      "temporalit\u00e9": {}, 
                      "acteurs": {}, 
                      "source": {}, 
                      "api": {}, 
                      "normes": {}, 
                      "nomemclature": {}
                    }
                  ], 
                  "d\u00e9finition": "Al\u00e9as EXTERNES naturels et leur degr\u00e8s d'intensit\u00e9", 
                  "label": "Al\u00e9as naturels"
                }, 
                {
                  "data": [
                    {
                      "format": {}, 
                      "url": {}, 
                      "temporalit\u00e9": {}, 
                      "acteurs": {}, 
                      "source": {}, 
                      "api": {}, 
                      "normes": {}, 
                      "nomemclature": {}
                    }
                  ], 
                  "d\u00e9finition": "Al\u00e9as EXTERNES artificiels et leur degr\u00e9s d'intensit\u00e9.", 
                  "label": "Al\u00e9as technologiques"
                }, 
                {
                  "data": [
                    {
                      "format": {}, 
                      "url": {}, 
                      "temporalit\u00e9": {}, 
                      "acteurs": {}, 
                      "source": {}, 
                      "api": {}, 
                      "normes": {}, 
                      "nomemclature": {}
                    }
                  ], 
                  "d\u00e9finition": "Al\u00e9as INTERNES li\u00e9s \u00e0 l'activit\u00e9 et leur degr\u00e9s d'intensit\u00e9.", 
                  "label": "Al\u00e9as Activit\u00e9s"
                }
              ], 
              "d\u00e9finition": "Facteurs accidentiels mettant en p\u00e9ril le maintien optimal de l'ouvrage et de ses fonctions", 
              "label": "Al\u00e9as"
            }, 
            {
              "children": [
                {
                  "data": [
                    {
                      "format": {}, 
                      "url": {}, 
                      "temporalit\u00e9": {}, 
                      "acteurs": {}, 
                      "source": {}, 
                      "api": {}, 
                      "normes": {}, 
                      "nomemclature": {}
                    }
                  ], 
                  "d\u00e9finition": "Niveau de d\u00e9gradation des fondations de l'infrastructure", 
                  "label": "Fondation et Infrastructure"
                }, 
                {
                  "data": [
                    {
                      "format": {}, 
                      "url": {}, 
                      "temporalit\u00e9": {}, 
                      "acteurs": {}, 
                      "source": {}, 
                      "api": {}, 
                      "normes": {}, 
                      "nomemclature": {}
                    }
                  ], 
                  "d\u00e9finition": "Niveau de d\u00e9gradation dela structure et du gros oeuvre", 
                  "label": "Structure et gros oeuvre"
                }, 
                {
                  "data": [
                    {
                      "format": {}, 
                      "url": {}, 
                      "temporalit\u00e9": {}, 
                      "acteurs": {}, 
                      "source": {}, 
                      "api": {}, 
                      "normes": {}, 
                      "nomemclature": {}
                    }
                  ], 
                  "d\u00e9finition": "Niveau de d\u00e9gradation de la charpente et le couverture", 
                  "label": "Couverture et charpente"
                }, 
                {
                  "data": [
                    {
                      "format": {}, 
                      "url": {}, 
                      "temporalit\u00e9": {}, 
                      "acteurs": {}, 
                      "source": {}, 
                      "api": {}, 
                      "normes": {}, 
                      "nomemclature": {}
                    }
                  ], 
                  "d\u00e9finition": "Niveau de d\u00e9gradation du clos et de la menuiserie", 
                  "label": "Clos et menuiserie"
                }, 
                {
                  "data": [
                    {
                      "format": {}, 
                      "url": {}, 
                      "temporalit\u00e9": {}, 
                      "acteurs": {}, 
                      "source": {}, 
                      "api": {}, 
                      "normes": {}, 
                      "nomemclature": {}
                    }
                  ], 
                  "d\u00e9finition": "Niveau de d\u00e9gradation des ornementations et du rev\u00eatement", 
                  "label": "Ornementation et rev\u00eatement"
                }
              ], 
              "d\u00e9finition": "D\u00e9gradations des syst\u00e8mes techniques et esth\u00e9tiques de l'architecture", 
              "label": "Pathologie"
            }, 
            {
              "children": [
                {
                  "data": [
                    {
                      "format": {}, 
                      "url": {}, 
                      "temporalit\u00e9": {}, 
                      "acteurs": {}, 
                      "source": {}, 
                      "api": {}, 
                      "normes": {}, 
                      "nomemclature": {}
                    }
                  ], 
                  "d\u00e9finition": "Nombre de marques (tags, graphs, \u00e9critures, gravures, affichage sauvage) sur l'\u00e9difice", 
                  "label": "Marques"
                }, 
                {
                  "data": [
                    {
                      "format": {}, 
                      "url": {}, 
                      "temporalit\u00e9": {}, 
                      "acteurs": {}, 
                      "source": {}, 
                      "api": {}, 
                      "normes": {}, 
                      "nomemclature": {}
                    }
                  ], 
                  "d\u00e9finition": "Taux d'\u00e9l\u00e9ments arrach\u00e9s \u00e0 l'\u00e9difice", 
                  "label": "Arrachages"
                }, 
                {
                  "data": [
                    {
                      "format": {}, 
                      "url": {}, 
                      "temporalit\u00e9": {}, 
                      "acteurs": {}, 
                      "source": {}, 
                      "api": {}, 
                      "normes": {}, 
                      "nomemclature": {}
                    }
                  ], 
                  "d\u00e9finition": "Nombre d'attaques port\u00e9es \u00e0 l'\u00e9difice", 
                  "label": "Attaques"
                }
              ], 
              "d\u00e9finition": "Comportement non conventionnel portant atteint \u00e0 l'int\u00e9grit\u00e9 de l'ouvrage", 
              "label": "Vandalisme"
            }, 
            {
              "children": [
                {
                  "data": [
                    {
                      "format": {}, 
                      "url": {}, 
                      "temporalit\u00e9": {}, 
                      "acteurs": {}, 
                      "source": {}, 
                      "api": {}, 
                      "normes": {}, 
                      "nomemclature": {}
                    }
                  ], 
                  "d\u00e9finition": "Pourcentage de parties d\u00e9truites sur l'ensemble de l'ouvrage", 
                  "label": "Taux de destruction"
                }, 
                {
                  "data": [
                    {
                      "format": {}, 
                      "url": {}, 
                      "temporalit\u00e9": {}, 
                      "acteurs": {}, 
                      "source": {}, 
                      "api": {}, 
                      "normes": {}, 
                      "nomemclature": {}
                    }
                  ], 
                  "d\u00e9finition": "Facteurs critiques d\u00e9clencheurs dans le processus de destruction de l'ouvrage", 
                  "label": "Causes destruction"
                }, 
                {
                  "data": [
                    {
                      "format": {}, 
                      "url": {}, 
                      "temporalit\u00e9": {}, 
                      "acteurs": {}, 
                      "source": {}, 
                      "api": {}, 
                      "normes": {}, 
                      "nomemclature": {}
                    }
                  ], 
                  "d\u00e9finition": "Identification des zones d\u00e9truites", 
                  "label": "Parties d\u00e9truites"
                }, 
                {
                  "data": [
                    {
                      "format": {}, 
                      "url": {}, 
                      "temporalit\u00e9": {}, 
                      "acteurs": {}, 
                      "source": {}, 
                      "api": {}, 
                      "normes": {}, 
                      "nomemclature": {}
                    }
                  ], 
                  "d\u00e9finition": "Date associ\u00e9 \u00e0 l'\u00e9v\u00e9nement destructeur", 
                  "label": "Dates destruction"
                }
              ], 
              "d\u00e9finition": "Ph\u00e9nom\u00e8ne de d\u00e9molition physique de l'ouvrage", 
              "label": "Destruction"
            }, 
            {
              "children": [
                {
                  "data": [
                    {
                      "format": {}, 
                      "url": {}, 
                      "temporalit\u00e9": {}, 
                      "acteurs": {}, 
                      "source": {}, 
                      "api": {}, 
                      "normes": {}, 
                      "nomemclature": {}
                    }
                  ], 
                  "d\u00e9finition": "Pr\u00e9sence de m\u00e9rule", 
                  "label": "M\u00e9rule"
                }, 
                {
                  "data": [
                    {
                      "format": {}, 
                      "url": {}, 
                      "temporalit\u00e9": {}, 
                      "acteurs": {}, 
                      "source": {}, 
                      "api": {}, 
                      "normes": {}, 
                      "nomemclature": {}
                    }
                  ], 
                  "d\u00e9finition": "Pr\u00e9sence de salp\u00eatre", 
                  "label": "Salp\u00eatre"
                }, 
                {
                  "data": [
                    {
                      "format": {}, 
                      "url": {}, 
                      "temporalit\u00e9": {}, 
                      "acteurs": {}, 
                      "source": {}, 
                      "api": {}, 
                      "normes": {}, 
                      "nomemclature": {}
                    }
                  ], 
                  "d\u00e9finition": "Pr\u00e9sence de plomb dans les mat\u00e9riaux de la construction", 
                  "label": "Plomb"
                }, 
                {
                  "data": [
                    {
                      "format": {}, 
                      "url": {}, 
                      "temporalit\u00e9": {}, 
                      "acteurs": {}, 
                      "source": {}, 
                      "api": {}, 
                      "normes": {}, 
                      "nomemclature": {}
                    }
                  ], 
                  "d\u00e9finition": "Pr\u00e9sence d'amiante dans les mat\u00e9riaux de la construction", 
                  "label": "Amiante"
                }, 
                {
                  "data": [
                    {
                      "format": {}, 
                      "url": {}, 
                      "temporalit\u00e9": {}, 
                      "acteurs": {}, 
                      "source": {}, 
                      "api": {}, 
                      "normes": {}, 
                      "nomemclature": {}
                    }
                  ], 
                  "d\u00e9finition": "Pr\u00e9sence de termites", 
                  "label": "Termites"
                }, 
                {
                  "data": [
                    {
                      "format": {}, 
                      "url": {}, 
                      "temporalit\u00e9": {}, 
                      "acteurs": {}, 
                      "source": {}, 
                      "api": {}, 
                      "normes": {}, 
                      "nomemclature": {}
                    }
                  ], 
                  "d\u00e9finition": "D\u00e9claration de cas de legionellose", 
                  "label": "L\u00e9gionelloses"
                }, 
                {
                  "data": [
                    {
                      "format": {}, 
                      "url": {}, 
                      "temporalit\u00e9": {}, 
                      "acteurs": {}, 
                      "source": {}, 
                      "api": {}, 
                      "normes": {}, 
                      "nomemclature": {}
                    }
                  ], 
                  "d\u00e9finition": "Etat de fonctionnement du syst\u00e8me d'evacuation des eaux", 
                  "label": "Assainissement"
                }
              ], 
              "d\u00e9finition": "Principaux risques sanitaires sur l'ouvrage", 
              "label": "\u00c9tat sanitaire"
            }
          ], 
          "d\u00e9finition": "Caract\u00e8re d'usure de l'int\u00e9grit\u00e9 de l'ouvrage", 
          "label": "D\u00e9gradation"
        }, 
        {
          "children": [
            {
              "children": [
                {
                  "data": [
                    {
                      "format": {}, 
                      "url": {}, 
                      "temporalit\u00e9": {}, 
                      "acteurs": {}, 
                      "source": {}, 
                      "api": {}, 
                      "normes": {}, 
                      "nomemclature": {}
                    }
                  ], 
                  "d\u00e9finition": "Mode constructif desuet selon la r\u00e9glementation en vigueur", 
                  "label": "Techniques caduques"
                }, 
                {
                  "data": [
                    {
                      "format": {}, 
                      "url": {}, 
                      "temporalit\u00e9": {}, 
                      "acteurs": {}, 
                      "source": {}, 
                      "api": {}, 
                      "normes": {}, 
                      "nomemclature": {}
                    }
                  ], 
                  "d\u00e9finition": "D\u00e9valorisation \u00e9conomique du foncier", 
                  "label": "Prix du foncier"
                }
              ], 
              "d\u00e9finition": "Technique ou usage d\u00e9pass\u00e9 ou remplac\u00e9", 
              "label": "Hors du temps"
            }, 
            {
              "children": [
                {
                  "data": [
                    {
                      "format": {}, 
                      "url": {}, 
                      "temporalit\u00e9": {}, 
                      "acteurs": {}, 
                      "source": {}, 
                      "api": {}, 
                      "normes": {}, 
                      "nomemclature": {}
                    }
                  ], 
                  "d\u00e9finition": "vide", 
                  "label": "Conventions"
                }, 
                {
                  "data": [
                    {
                      "format": {}, 
                      "url": {}, 
                      "temporalit\u00e9": {}, 
                      "acteurs": {}, 
                      "source": {}, 
                      "api": {}, 
                      "normes": {}, 
                      "nomemclature": {}
                    }
                  ], 
                  "d\u00e9finition": "Ce que partagent les gens - production des romans, cinema, th\u00e9atre", 
                  "label": "R\u00e9cit"
                }
              ], 
              "d\u00e9finition": "Lorsqu'un patrimoine ne correspond plus \u00e0 un imaginaire convenu, hors de la narration qui a fait naitre l'ouvrage", 
              "label": "Hors pratiques symboliques"
            }, 
            {
              "children": [
                {
                  "data": [
                    {
                      "format": {}, 
                      "url": {}, 
                      "temporalit\u00e9": {}, 
                      "acteurs": {}, 
                      "source": {}, 
                      "api": {}, 
                      "normes": {}, 
                      "nomemclature": {}
                    }
                  ], 
                  "d\u00e9finition": "Date de l'extinction de l'usage", 
                  "label": "Date d'extinction"
                }
              ], 
              "d\u00e9finition": "Ne peut plus \u00eatre utilis\u00e9 pour sa fonction premi\u00e8re", 
              "label": "Hors d'usage"
            }
          ], 
          "d\u00e9finition": "Inad\u00e9quation face \u00e0 un contexte social, \u00e9conomique, g\u00e9n\u00e9rationnel", 
          "label": "Obsolescence"
        }
      ], 
      "d\u00e9finition": "Satisfaction d\u2019un aspect non contemporain par la dissolution de la forme sous l\u2019effet du temps, jusqu\u2019\u00e0 la d\u00e9composition totale, la ruine", 
      "label": "Anciennet\u00e9"
    }, 
    {
      "children": [
        {
          "children": [
            {
              "children": [
                {
                  "data": [
                    {
                      "format": {}, 
                      "url": {}, 
                      "temporalit\u00e9": {}, 
                      "acteurs": {}, 
                      "source": {}, 
                      "api": {}, 
                      "normes": {}, 
                      "nomemclature": {}
                    }
                  ], 
                  "d\u00e9finition": "Ev\u00e8nements officiels", 
                  "label": "C\u00e9r\u00e9monies"
                }, 
                {
                  "data": [
                    {
                      "format": {}, 
                      "url": {}, 
                      "temporalit\u00e9": {}, 
                      "acteurs": {}, 
                      "source": {}, 
                      "api": {}, 
                      "normes": {}, 
                      "nomemclature": {}
                    }
                  ], 
                  "d\u00e9finition": "Statue, plaque, timbre, m\u00e9daille, monument, etc", 
                  "label": "Objets"
                }, 
                {
                  "data": [
                    {
                      "format": {}, 
                      "url": {}, 
                      "temporalit\u00e9": {}, 
                      "acteurs": {}, 
                      "source": {}, 
                      "api": {}, 
                      "normes": {}, 
                      "nomemclature": {}
                    }
                  ], 
                  "d\u00e9finition": "Nom de rue, de lieu", 
                  "label": "Toponymie"
                }, 
                {
                  "data": [
                    {
                      "format": {}, 
                      "url": {}, 
                      "temporalit\u00e9": {}, 
                      "acteurs": {}, 
                      "source": {}, 
                      "api": {}, 
                      "normes": {}, 
                      "nomemclature": {}
                    }
                  ], 
                  "d\u00e9finition": "Comm\u00e9moration de l'objet institu\u00e9e par une loi", 
                  "label": "Lois"
                }
              ], 
              "d\u00e9finition": "C\u00e9l\u00e9bration officielle, institutionnelle", 
              "label": "Comm\u00e9moration"
            }, 
            {
              "children": [
                {
                  "data": [
                    {
                      "format": {}, 
                      "url": {}, 
                      "temporalit\u00e9": {}, 
                      "acteurs": {}, 
                      "source": {}, 
                      "api": {}, 
                      "normes": {}, 
                      "nomemclature": {}
                    }
                  ], 
                  "d\u00e9finition": "Date de changement d'usage", 
                  "label": "Date"
                }, 
                {
                  "data": [
                    {
                      "format": {}, 
                      "url": {}, 
                      "temporalit\u00e9": {}, 
                      "acteurs": {}, 
                      "source": {}, 
                      "api": {}, 
                      "normes": {}, 
                      "nomemclature": {}
                    }
                  ], 
                  "d\u00e9finition": "Pourcentage de trace de l'usage originel", 
                  "label": "Pourcentage d'extinction"
                }
              ], 
              "d\u00e9finition": "Conservation d'un usage originel", 
              "label": "Reste d'usage"
            }
          ], 
          "d\u00e9finition": "Caract\u00e8re m\u00e9moriel officiel satisfaisant une conservation", 
          "label": "Conservation"
        }, 
        {
          "children": [
            {
              "children": [
                {
                  "data": [
                    {
                      "format": {}, 
                      "url": {}, 
                      "temporalit\u00e9": {}, 
                      "acteurs": {}, 
                      "source": {}, 
                      "api": {}, 
                      "normes": {}, 
                      "nomemclature": {}
                    }
                  ], 
                  "d\u00e9finition": "Ouvrages de connaissance universelle, d'enseignement", 
                  "label": "Encyclop\u00e9die"
                }, 
                {
                  "data": [
                    {
                      "format": {}, 
                      "url": {}, 
                      "temporalit\u00e9": {}, 
                      "acteurs": {}, 
                      "source": {}, 
                      "api": {}, 
                      "normes": {}, 
                      "nomemclature": {}
                    }
                  ], 
                  "d\u00e9finition": "\u0152uvres de l'ordre du visuel", 
                  "label": "Arts graphiques"
                }, 
                {
                  "data": [
                    {
                      "format": {}, 
                      "url": {}, 
                      "temporalit\u00e9": {}, 
                      "acteurs": {}, 
                      "source": {}, 
                      "api": {}, 
                      "normes": {}, 
                      "nomemclature": {}
                    }
                  ], 
                  "d\u00e9finition": "\u0152uvres musicales", 
                  "label": "Arts musicaux"
                }, 
                {
                  "data": [
                    {
                      "format": {}, 
                      "url": {}, 
                      "temporalit\u00e9": {}, 
                      "acteurs": {}, 
                      "source": {}, 
                      "api": {}, 
                      "normes": {}, 
                      "nomemclature": {}
                    }
                  ], 
                  "d\u00e9finition": "Spectacles avec pr\u00e9sence d'actants et d'un public", 
                  "label": "Arts vivants"
                }, 
                {
                  "data": [
                    {
                      "format": {}, 
                      "url": {}, 
                      "temporalit\u00e9": {}, 
                      "acteurs": {}, 
                      "source": {}, 
                      "api": {}, 
                      "normes": {}, 
                      "nomemclature": {}
                    }
                  ], 
                  "d\u00e9finition": "\u0152uvres \u00e9crites, ouvrages publi\u00e9s", 
                  "label": "Litt\u00e9rature"
                }, 
                {
                  "data": [
                    {
                      "format": {}, 
                      "url": {}, 
                      "temporalit\u00e9": {}, 
                      "acteurs": {}, 
                      "source": {}, 
                      "api": {}, 
                      "normes": {}, 
                      "nomemclature": {}
                    }
                  ], 
                  "d\u00e9finition": "M\u00e9dias associant images et sons", 
                  "label": "Audiovisuel"
                }
              ], 
              "d\u00e9finition": "Pr\u00e9sence de la m\u00e9moire dans des r\u00e9cits", 
              "label": "Occurence narrative"
            }, 
            {
              "children": [
                {
                  "data": [
                    {
                      "format": {}, 
                      "url": {}, 
                      "temporalit\u00e9": {}, 
                      "acteurs": {}, 
                      "source": {}, 
                      "api": {}, 
                      "normes": {}, 
                      "nomemclature": {}
                    }
                  ], 
                  "d\u00e9finition": "Pourcentage de traces de l'\u00e9difice d'origine par rapport \u00e0 la surface b\u00e2tie", 
                  "label": "Restes d'origine"
                }
              ], 
              "d\u00e9finition": "Restes d'origine pr\u00e9sents sur l'\u00e9difice", 
              "label": "Traces physiques"
            }, 
            {
              "children": [
                {
                  "data": [
                    {
                      "format": {}, 
                      "url": {}, 
                      "temporalit\u00e9": {}, 
                      "acteurs": {}, 
                      "source": {}, 
                      "api": {}, 
                      "normes": {}, 
                      "nomemclature": {}
                    }
                  ], 
                  "d\u00e9finition": "Salon o\u00f9 l'\u00e9tat originel est \u00e9voqu\u00e9", 
                  "label": "Salon"
                }, 
                {
                  "data": [
                    {
                      "format": {}, 
                      "url": {}, 
                      "temporalit\u00e9": {}, 
                      "acteurs": {}, 
                      "source": {}, 
                      "api": {}, 
                      "normes": {}, 
                      "nomemclature": {}
                    }
                  ], 
                  "d\u00e9finition": "Association valorisant l'objet", 
                  "label": "Associations, clubs"
                }, 
                {
                  "data": [
                    {
                      "format": {}, 
                      "url": {}, 
                      "temporalit\u00e9": {}, 
                      "acteurs": {}, 
                      "source": {}, 
                      "api": {}, 
                      "normes": {}, 
                      "nomemclature": {}
                    }
                  ], 
                  "d\u00e9finition": "Manifestation dans l'espace public", 
                  "label": "Rassemblements"
                }
              ], 
              "d\u00e9finition": "C\u00e9l\u00e9bration informelle du caract\u00e8re m\u00e9moriel", 
              "label": "Ev\u00e9nement"
            }
          ], 
          "d\u00e9finition": "Conservation de la m\u00e9moire par transmission narrative", 
            "label": "Transmission",
            "color": "darkviolet"
        }
      ], 
      "d\u00e9finition": "Satisfaction d'un vouloir m\u00e9moriel intentionnel", 
        "label": "M\u00e9moire", 
        "color": "violet"
    } 
  ], 
  "d\u00e9finition": "riegl", 
  "label": "RIEGL"
}
